harp_diff_means 0.004312073 0.003556738 0.002141885 -0.00342031 0.00106528 -0.009337077 -0.006267371 -0.006856909 -0.005298582 -0.007557216 -0.002651383 -0.005722853 -0.01071525 -0.01102646 -0.01131909 -0.01426931 -0.01147085 -0.01219017 -0.01936582 -0.01095676 
harp_diff_variances 0.0002058558 0.000701844 0.001110096 0.001461746 0.001801102 0.00229965 0.002418343 0.002064978 0.002328795 0.001962023 0.002257174 0.001671474 0.002216046 0.001821738 0.002178444 0.00185967 0.001346082 0.001157491 0.001238251 0.0004142269 
pileup_diff_means 0.03783891 0.03200293 0.0266818 0.0220532 0.01990897 0.01840059 0.01503604 0.009711104 0.006745589 0.006245333 0.0006304597 -0.00327252 -0.006744648 -0.01168993 -0.0138959 -0.01680694 -0.01631406 -0.02125135 -0.02614142 -0.03004796 
pileup_diff_variances 0.0001970581 0.0005148782 0.0008051713 0.0009849468 0.001117576 0.001289072 0.001382496 0.001404736 0.001575986 0.001664851 0.00146032 0.001488 0.001335617 0.001402997 0.001265931 0.001041872 0.0008674726 0.0009123076 0.0004789587 0.0002750198 
