harp_diff_means 0.005552347 0.008355398 0.006178239 0.01071424 0.007744293 -0.01207264 -0.0137913 -0.006921298 -0.02002814 -0.01862784 -0.01762281 -0.02352006 -0.02149273 -0.02412134 -0.02819811 -0.01873033 -0.02933317 -0.01976446 -0.01158181 -0.01701677 
harp_diff_variances 0.0007000462 0.001730214 0.002227227 0.002438481 0.003829037 0.004004282 0.004352955 0.003856777 0.005099406 0.004877993 0.005131465 0.006478134 0.005214307 0.005652225 0.004971747 0.003378888 0.003215333 0.002529004 0.001906966 0.001126256 
pileup_diff_means 0.0369357 0.03310261 0.0282962 0.02782092 0.02366238 0.01552519 0.01264742 0.009718964 0.00831741 0.008746011 -0.001473091 -0.003056816 -0.006114115 -0.008091632 -0.01308816 -0.0161312 -0.01943213 -0.02196766 -0.02615582 -0.03000456 
pileup_diff_variances 0.0002461898 0.0005889534 0.0008415167 0.001049497 0.001167904 0.001382706 0.001310669 0.001567297 0.001427556 0.00165909 0.001587844 0.00171743 0.001463377 0.001196423 0.001158662 0.001166917 0.0008825015 0.0007139263 0.0004872837 0.0002241894 
