harp_diff_means 0.0003265594 0.001212776 0.0004466494 0.0008391219 0.0007139206 0.000210115 -0.0001418352 -0.0006082721 -0.0001027677 -0.0002928536 0.0008312509 0.001098284 -0.0002357666 0.0005913053 -0.002335369 -0.001617338 -0.0005478928 -0.0004805071 -0.0006847435 -0.001200933 
harp_diff_variances 1.698954e-05 6.611988e-05 9.971241e-05 0.0001412222 0.0001712282 0.0002008899 0.0002079244 0.0002531179 0.0002478441 0.0002304424 0.0002730167 0.000268401 0.0002587004 0.0002610791 0.0002986743 0.0002035761 0.000137343 0.0001320659 7.483873e-05 2.736035e-05 
pileup_diff_means 0.03628212 0.03023329 0.02614382 0.02324295 0.01982847 0.0154531 0.01451629 0.01050039 0.004583586 0.002309257 -0.003696023 -0.004839446 -0.007616254 -0.01013013 -0.01607215 -0.01690273 -0.02013236 -0.01920336 -0.02658711 -0.02931268 
pileup_diff_variances 0.0002171248 0.0005277932 0.0007378964 0.0009781611 0.001135387 0.00127926 0.00147894 0.001485666 0.001415077 0.001566186 0.00154146 0.001588091 0.001281028 0.00148665 0.001247442 0.001100121 0.001063103 0.0008283109 0.0006148051 0.0002597414 
